test_vhdl/annale_2014.vcd
$date
  Sun Nov 10 17:47:07 2019
$end
$version
  GHDL v0
$end
$timescale
  1 fs
$end
$var reg 1 ! ck $end
$var reg 1 " clk_go $end
$var reg 1 # signin $end
$var reg 1 $ detect $end
$var reg 7 % cpt[6:0] $end
$var reg 64 & sig[63:0] $end
$var integer 32 ' compteur $end
$scope module l0 $end
$var reg 1 ( ck $end
$var reg 1 ) signin $end
$var reg 1 * detect $end
$var reg 64 + sig[63:0] $end
$var reg 7 , cpt[6:0] $end
$var reg 64 - signal_s[63:0] $end
$var integer 32 . cpt_s $end
$var reg 1 / premiertour $end
$upscope $end
$enddefinitions $end
#0
0!
1"
0#
U$
bUUUUUUU %
bUUUUUUUUUUUUUUUUUUUUUUUUUUUUUUUUUUUUUUUUUUUUUUUUUUUUUUUUUUUUUUUU &
b0 '
0(
0)
U*
bUUUUUUUUUUUUUUUUUUUUUUUUUUUUUUUUUUUUUUUUUUUUUUUUUUUUUUUUUUUUUUUU +
bUUUUUUU ,
bUUUUUUUUUUUUUUUUUUUUUUUUUUUUUUUUUUUUUUUUUUUUUUUUUUUUUUUUUUUUUUUU -
b0 .
0/
#10000000
1!
1#
0$
b1 '
1(
1)
0*
b1 .
#20000000
0!
0(
#30000000
1!
b10 '
1(
b10 .
#40000000
0!
0(
#50000000
1!
b11 '
1(
b11 .
#60000000
0!
0(
#70000000
1!
b100 '
1(
b100 .
#80000000
0!
0(
#90000000
1!
b101 '
1(
b101 .
#100000000
0!
0(
#110000000
1!
b110 '
1(
b110 .
#120000000
0!
0(
#130000000
1!
b111 '
1(
b111 .
#140000000
0!
0(
#150000000
1!
b1000 '
1(
b1000 .
#160000000
0!
0(
#170000000
1!
b1001 '
1(
b1001 .
#180000000
0!
0(
#190000000
1!
b1010 '
1(
b1010 .
#200000000
0!
0(
#210000000
1!
b1011 '
1(
b1011 .
#220000000
0!
0(
#230000000
1!
b1100 '
1(
b1100 .
#240000000
0!
0(
#250000000
1!
b1101 '
1(
b1101 .
#260000000
0!
0(
#270000000
1!
b1110 '
1(
b1110 .
#280000000
0!
0(
#290000000
1!
b1111 '
1(
b1111 .
#300000000
0!
0(
#310000000
1!
b10000 '
1(
b10000 .
#320000000
0!
0(
#330000000
1!
b10001 '
1(
b10001 .
#340000000
0!
0(
#350000000
1!
b10010 '
1(
b10010 .
#360000000
0!
0(
#370000000
1!
b10011 '
1(
b10011 .
#380000000
0!
0(
#390000000
1!
b10100 '
1(
b10100 .
#400000000
0!
0(
#410000000
1!
b10101 '
1(
b10101 .
#420000000
0!
0(
#430000000
1!
b10110 '
1(
b10110 .
#440000000
0!
0(
#450000000
1!
b10111 '
1(
b10111 .
#460000000
0!
0(
#470000000
1!
b11000 '
1(
b11000 .
#480000000
0!
0(
#490000000
1!
b11001 '
1(
b11001 .
#500000000
0!
0(
#510000000
1!
b11010 '
1(
b11010 .
#520000000
0!
0(
#530000000
1!
b11011 '
1(
b11011 .
#540000000
0!
0(
#550000000
1!
b11100 '
1(
b11100 .
#560000000
0!
0(
#570000000
1!
b11101 '
1(
b11101 .
#580000000
0!
0(
#590000000
1!
b11110 '
1(
b11110 .
#600000000
0!
0(
#610000000
1!
b11111 '
1(
b11111 .
#620000000
0!
0(
#630000000
1!
b100000 '
1(
b100000 .
#640000000
0!
0(
#650000000
1!
b100001 '
1(
b100001 .
#660000000
0!
0(
#670000000
1!
b100010 '
1(
b100010 .
#680000000
0!
0(
#690000000
1!
b100011 '
1(
b100011 .
#700000000
0!
0(
#710000000
1!
b100100 '
1(
b100100 .
#720000000
0!
0(
#730000000
1!
b100101 '
1(
b100101 .
#740000000
0!
0(
#750000000
1!
b100110 '
1(
b100110 .
#760000000
0!
0(
#770000000
1!
b100111 '
1(
b100111 .
#780000000
0!
0(
#790000000
1!
b101000 '
1(
b101000 .
#800000000
0!
0(
#810000000
1!
b101001 '
1(
b101001 .
#820000000
0!
0(
#830000000
1!
b101010 '
1(
b101010 .
#840000000
0!
0(
#850000000
1!
b101011 '
1(
b101011 .
#860000000
0!
0(
#870000000
1!
b101100 '
1(
b101100 .
#880000000
0!
0(
#890000000
1!
b101101 '
1(
b101101 .
#900000000
0!
0(
#910000000
1!
b101110 '
1(
b101110 .
#920000000
0!
0(
#930000000
1!
b101111 '
1(
b101111 .
#940000000
0!
0(
#950000000
1!
b110000 '
1(
b110000 .
#960000000
0!
0(
#970000000
1!
b110001 '
1(
b110001 .
#980000000
0!
0(
#990000000
1!
b110010 '
1(
b110010 .
#1000000000
0!
0(
#1010000000
1!
b110011 '
1(
b110011 .
#1020000000
0!
0(
#1030000000
1!
b110100 '
1(
b110100 .
#1040000000
0!
0(
#1050000000
1!
b110101 '
1(
b110101 .
#1060000000
0!
0(
#1070000000
1!
b110110 '
1(
b110110 .
#1080000000
0!
0(
#1090000000
1!
b110111 '
1(
b110111 .
#1100000000
0!
0(
#1110000000
1!
b111000 '
1(
b111000 .
#1120000000
0!
0(
#1130000000
1!
b111001 '
1(
b111001 .
#1140000000
0!
0(
#1150000000
1!
b111010 '
1(
b111010 .
#1160000000
0!
0(
#1170000000
1!
b111011 '
1(
b111011 .
#1180000000
0!
0(
#1190000000
1!
b111100 '
1(
b111100 .
#1200000000
0!
0(
#1210000000
1!
b111101 '
1(
b111101 .
#1220000000
0!
0(
#1230000000
1!
b111110 '
1(
b111110 .
#1240000000
0!
0(
#1250000000
1!
b111111 '
1(
b111111 .
#1260000000
0!
0(
#1270000000
1!
b1000000 '
1(
b0 .
1/
#1280000000
0!
0(
#1290000000
1!
1$
bUUUUUUUUUUUUUUUUUUUUUUUUUUUUUUUUUUUUUUUUUUUUUUUUUUUUUUUUUUUUUUU1 &
b1000001 '
1(
1*
bUUUUUUUUUUUUUUUUUUUUUUUUUUUUUUUUUUUUUUUUUUUUUUUUUUUUUUUUUUUUUUU1 +
bUUUUUUUUUUUUUUUUUUUUUUUUUUUUUUUUUUUUUUUUUUUUUUUUUUUUUUUUUUUUUUU1 -
b1 .
#1300000000
0!
0(
#1310000000
1!
bUUUUUUUUUUUUUUUUUUUUUUUUUUUUUUUUUUUUUUUUUUUUUUUUUUUUUUUUUUUUUU11 &
b1000010 '
1(
bUUUUUUUUUUUUUUUUUUUUUUUUUUUUUUUUUUUUUUUUUUUUUUUUUUUUUUUUUUUUUU11 +
bUUUUUUUUUUUUUUUUUUUUUUUUUUUUUUUUUUUUUUUUUUUUUUUUUUUUUUUUUUUUUU11 -
b10 .
#1320000000
0!
0(
#1330000000
1!
bUUUUUUUUUUUUUUUUUUUUUUUUUUUUUUUUUUUUUUUUUUUUUUUUUUUUUUUUUUUUU111 &
b1000011 '
1(
bUUUUUUUUUUUUUUUUUUUUUUUUUUUUUUUUUUUUUUUUUUUUUUUUUUUUUUUUUUUUU111 +
bUUUUUUUUUUUUUUUUUUUUUUUUUUUUUUUUUUUUUUUUUUUUUUUUUUUUUUUUUUUUU111 -
b11 .
#1340000000
0!
0(
#1350000000
1!
bUUUUUUUUUUUUUUUUUUUUUUUUUUUUUUUUUUUUUUUUUUUUUUUUUUUUUUUUUUUU1111 &
b1000100 '
1(
bUUUUUUUUUUUUUUUUUUUUUUUUUUUUUUUUUUUUUUUUUUUUUUUUUUUUUUUUUUUU1111 +
bUUUUUUUUUUUUUUUUUUUUUUUUUUUUUUUUUUUUUUUUUUUUUUUUUUUUUUUUUUUU1111 -
b100 .
#1360000000
0!
0(
#1370000000
1!
bUUUUUUUUUUUUUUUUUUUUUUUUUUUUUUUUUUUUUUUUUUUUUUUUUUUUUUUUUUU11111 &
b1000101 '
1(
bUUUUUUUUUUUUUUUUUUUUUUUUUUUUUUUUUUUUUUUUUUUUUUUUUUUUUUUUUUU11111 +
bUUUUUUUUUUUUUUUUUUUUUUUUUUUUUUUUUUUUUUUUUUUUUUUUUUUUUUUUUUU11111 -
b101 .
#1380000000
0!
0(
#1390000000
1!
bUUUUUUUUUUUUUUUUUUUUUUUUUUUUUUUUUUUUUUUUUUUUUUUUUUUUUUUUUU111111 &
b1000110 '
1(
bUUUUUUUUUUUUUUUUUUUUUUUUUUUUUUUUUUUUUUUUUUUUUUUUUUUUUUUUUU111111 +
bUUUUUUUUUUUUUUUUUUUUUUUUUUUUUUUUUUUUUUUUUUUUUUUUUUUUUUUUUU111111 -
b110 .
#1400000000
0!
0(
#1410000000
1!
bUUUUUUUUUUUUUUUUUUUUUUUUUUUUUUUUUUUUUUUUUUUUUUUUUUUUUUUUU1111111 &
b1000111 '
1(
bUUUUUUUUUUUUUUUUUUUUUUUUUUUUUUUUUUUUUUUUUUUUUUUUUUUUUUUUU1111111 +
bUUUUUUUUUUUUUUUUUUUUUUUUUUUUUUUUUUUUUUUUUUUUUUUUUUUUUUUUU1111111 -
b111 .
#1420000000
0!
0(
#1430000000
1!
bUUUUUUUUUUUUUUUUUUUUUUUUUUUUUUUUUUUUUUUUUUUUUUUUUUUUUUUU11111111 &
b1001000 '
1(
bUUUUUUUUUUUUUUUUUUUUUUUUUUUUUUUUUUUUUUUUUUUUUUUUUUUUUUUU11111111 +
bUUUUUUUUUUUUUUUUUUUUUUUUUUUUUUUUUUUUUUUUUUUUUUUUUUUUUUUU11111111 -
b1000 .
#1440000000
0!
0(
#1450000000
1!
bUUUUUUUUUUUUUUUUUUUUUUUUUUUUUUUUUUUUUUUUUUUUUUUUUUUUUUU111111111 &
b1001001 '
1(
bUUUUUUUUUUUUUUUUUUUUUUUUUUUUUUUUUUUUUUUUUUUUUUUUUUUUUUU111111111 +
bUUUUUUUUUUUUUUUUUUUUUUUUUUUUUUUUUUUUUUUUUUUUUUUUUUUUUUU111111111 -
b1001 .
#1460000000
0!
0(
#1470000000
1!
bUUUUUUUUUUUUUUUUUUUUUUUUUUUUUUUUUUUUUUUUUUUUUUUUUUUUUU1111111111 &
b1001010 '
1(
bUUUUUUUUUUUUUUUUUUUUUUUUUUUUUUUUUUUUUUUUUUUUUUUUUUUUUU1111111111 +
bUUUUUUUUUUUUUUUUUUUUUUUUUUUUUUUUUUUUUUUUUUUUUUUUUUUUUU1111111111 -
b1010 .
#1480000000
0!
0(
#1490000000
1!
bUUUUUUUUUUUUUUUUUUUUUUUUUUUUUUUUUUUUUUUUUUUUUUUUUUUUU11111111111 &
b1001011 '
1(
bUUUUUUUUUUUUUUUUUUUUUUUUUUUUUUUUUUUUUUUUUUUUUUUUUUUUU11111111111 +
bUUUUUUUUUUUUUUUUUUUUUUUUUUUUUUUUUUUUUUUUUUUUUUUUUUUUU11111111111 -
b1011 .
#1500000000
0!
0(
#1510000000
1!
bUUUUUUUUUUUUUUUUUUUUUUUUUUUUUUUUUUUUUUUUUUUUUUUUUUUU111111111111 &
b1001100 '
1(
bUUUUUUUUUUUUUUUUUUUUUUUUUUUUUUUUUUUUUUUUUUUUUUUUUUUU111111111111 +
bUUUUUUUUUUUUUUUUUUUUUUUUUUUUUUUUUUUUUUUUUUUUUUUUUUUU111111111111 -
b1100 .
#1520000000
0!
0(
#1530000000
1!
bUUUUUUUUUUUUUUUUUUUUUUUUUUUUUUUUUUUUUUUUUUUUUUUUUUU1111111111111 &
b1001101 '
1(
bUUUUUUUUUUUUUUUUUUUUUUUUUUUUUUUUUUUUUUUUUUUUUUUUUUU1111111111111 +
bUUUUUUUUUUUUUUUUUUUUUUUUUUUUUUUUUUUUUUUUUUUUUUUUUUU1111111111111 -
b1101 .
#1540000000
0!
0(
#1550000000
1!
bUUUUUUUUUUUUUUUUUUUUUUUUUUUUUUUUUUUUUUUUUUUUUUUUUU11111111111111 &
b1001110 '
1(
bUUUUUUUUUUUUUUUUUUUUUUUUUUUUUUUUUUUUUUUUUUUUUUUUUU11111111111111 +
bUUUUUUUUUUUUUUUUUUUUUUUUUUUUUUUUUUUUUUUUUUUUUUUUUU11111111111111 -
b1110 .
#1560000000
0!
0(
#1570000000
1!
bUUUUUUUUUUUUUUUUUUUUUUUUUUUUUUUUUUUUUUUUUUUUUUUUU111111111111111 &
b1001111 '
1(
bUUUUUUUUUUUUUUUUUUUUUUUUUUUUUUUUUUUUUUUUUUUUUUUUU111111111111111 +
bUUUUUUUUUUUUUUUUUUUUUUUUUUUUUUUUUUUUUUUUUUUUUUUUU111111111111111 -
b1111 .
#1580000000
0!
0(
#1590000000
1!
bUUUUUUUUUUUUUUUUUUUUUUUUUUUUUUUUUUUUUUUUUUUUUUUU1111111111111111 &
b1010000 '
1(
bUUUUUUUUUUUUUUUUUUUUUUUUUUUUUUUUUUUUUUUUUUUUUUUU1111111111111111 +
bUUUUUUUUUUUUUUUUUUUUUUUUUUUUUUUUUUUUUUUUUUUUUUUU1111111111111111 -
b10000 .
#1600000000
0!
0(
#1610000000
1!
bUUUUUUUUUUUUUUUUUUUUUUUUUUUUUUUUUUUUUUUUUUUUUUU11111111111111111 &
b1010001 '
1(
bUUUUUUUUUUUUUUUUUUUUUUUUUUUUUUUUUUUUUUUUUUUUUUU11111111111111111 +
bUUUUUUUUUUUUUUUUUUUUUUUUUUUUUUUUUUUUUUUUUUUUUUU11111111111111111 -
b10001 .
#1620000000
0!
0(
#1630000000
1!
bUUUUUUUUUUUUUUUUUUUUUUUUUUUUUUUUUUUUUUUUUUUUUU111111111111111111 &
b1010010 '
1(
bUUUUUUUUUUUUUUUUUUUUUUUUUUUUUUUUUUUUUUUUUUUUUU111111111111111111 +
bUUUUUUUUUUUUUUUUUUUUUUUUUUUUUUUUUUUUUUUUUUUUUU111111111111111111 -
b10010 .
#1640000000
0!
0(
#1650000000
1!
bUUUUUUUUUUUUUUUUUUUUUUUUUUUUUUUUUUUUUUUUUUUUU1111111111111111111 &
b1010011 '
1(
bUUUUUUUUUUUUUUUUUUUUUUUUUUUUUUUUUUUUUUUUUUUUU1111111111111111111 +
bUUUUUUUUUUUUUUUUUUUUUUUUUUUUUUUUUUUUUUUUUUUUU1111111111111111111 -
b10011 .
#1660000000
0!
0(
#1670000000
1!
bUUUUUUUUUUUUUUUUUUUUUUUUUUUUUUUUUUUUUUUUUUUU11111111111111111111 &
b1010100 '
1(
bUUUUUUUUUUUUUUUUUUUUUUUUUUUUUUUUUUUUUUUUUUUU11111111111111111111 +
bUUUUUUUUUUUUUUUUUUUUUUUUUUUUUUUUUUUUUUUUUUUU11111111111111111111 -
b10100 .
#1680000000
0!
0(
#1690000000
1!
bUUUUUUUUUUUUUUUUUUUUUUUUUUUUUUUUUUUUUUUUUUU111111111111111111111 &
b1010101 '
1(
bUUUUUUUUUUUUUUUUUUUUUUUUUUUUUUUUUUUUUUUUUUU111111111111111111111 +
bUUUUUUUUUUUUUUUUUUUUUUUUUUUUUUUUUUUUUUUUUUU111111111111111111111 -
b10101 .
#1700000000
0!
0(
#1710000000
1!
bUUUUUUUUUUUUUUUUUUUUUUUUUUUUUUUUUUUUUUUUUU1111111111111111111111 &
b1010110 '
1(
bUUUUUUUUUUUUUUUUUUUUUUUUUUUUUUUUUUUUUUUUUU1111111111111111111111 +
bUUUUUUUUUUUUUUUUUUUUUUUUUUUUUUUUUUUUUUUUUU1111111111111111111111 -
b10110 .
#1720000000
0!
0(
#1730000000
1!
bUUUUUUUUUUUUUUUUUUUUUUUUUUUUUUUUUUUUUUUUU11111111111111111111111 &
b1010111 '
1(
bUUUUUUUUUUUUUUUUUUUUUUUUUUUUUUUUUUUUUUUUU11111111111111111111111 +
bUUUUUUUUUUUUUUUUUUUUUUUUUUUUUUUUUUUUUUUUU11111111111111111111111 -
b10111 .
#1740000000
0!
0(
#1750000000
1!
bUUUUUUUUUUUUUUUUUUUUUUUUUUUUUUUUUUUUUUUU111111111111111111111111 &
b1011000 '
1(
bUUUUUUUUUUUUUUUUUUUUUUUUUUUUUUUUUUUUUUUU111111111111111111111111 +
bUUUUUUUUUUUUUUUUUUUUUUUUUUUUUUUUUUUUUUUU111111111111111111111111 -
b11000 .
#1760000000
0!
0(
#1770000000
1!
bUUUUUUUUUUUUUUUUUUUUUUUUUUUUUUUUUUUUUUU1111111111111111111111111 &
b1011001 '
1(
bUUUUUUUUUUUUUUUUUUUUUUUUUUUUUUUUUUUUUUU1111111111111111111111111 +
bUUUUUUUUUUUUUUUUUUUUUUUUUUUUUUUUUUUUUUU1111111111111111111111111 -
b11001 .
#1780000000
0!
0(
#1790000000
1!
bUUUUUUUUUUUUUUUUUUUUUUUUUUUUUUUUUUUUUU11111111111111111111111111 &
b1011010 '
1(
bUUUUUUUUUUUUUUUUUUUUUUUUUUUUUUUUUUUUUU11111111111111111111111111 +
bUUUUUUUUUUUUUUUUUUUUUUUUUUUUUUUUUUUUUU11111111111111111111111111 -
b11010 .
#1800000000
0!
0(
#1810000000
1!
bUUUUUUUUUUUUUUUUUUUUUUUUUUUUUUUUUUUUU111111111111111111111111111 &
b1011011 '
1(
bUUUUUUUUUUUUUUUUUUUUUUUUUUUUUUUUUUUUU111111111111111111111111111 +
bUUUUUUUUUUUUUUUUUUUUUUUUUUUUUUUUUUUUU111111111111111111111111111 -
b11011 .
#1820000000
0!
0(
#1830000000
1!
bUUUUUUUUUUUUUUUUUUUUUUUUUUUUUUUUUUUU1111111111111111111111111111 &
b1011100 '
1(
bUUUUUUUUUUUUUUUUUUUUUUUUUUUUUUUUUUUU1111111111111111111111111111 +
bUUUUUUUUUUUUUUUUUUUUUUUUUUUUUUUUUUUU1111111111111111111111111111 -
b11100 .
#1840000000
0!
0(
#1850000000
1!
bUUUUUUUUUUUUUUUUUUUUUUUUUUUUUUUUUUU11111111111111111111111111111 &
b1011101 '
1(
bUUUUUUUUUUUUUUUUUUUUUUUUUUUUUUUUUUU11111111111111111111111111111 +
bUUUUUUUUUUUUUUUUUUUUUUUUUUUUUUUUUUU11111111111111111111111111111 -
b11101 .
#1860000000
0!
0(
#1870000000
1!
bUUUUUUUUUUUUUUUUUUUUUUUUUUUUUUUUUU111111111111111111111111111111 &
b1011110 '
1(
bUUUUUUUUUUUUUUUUUUUUUUUUUUUUUUUUUU111111111111111111111111111111 +
bUUUUUUUUUUUUUUUUUUUUUUUUUUUUUUUUUU111111111111111111111111111111 -
b11110 .
#1880000000
0!
0(
#1890000000
1!
bUUUUUUUUUUUUUUUUUUUUUUUUUUUUUUUUU1111111111111111111111111111111 &
b1011111 '
1(
bUUUUUUUUUUUUUUUUUUUUUUUUUUUUUUUUU1111111111111111111111111111111 +
bUUUUUUUUUUUUUUUUUUUUUUUUUUUUUUUUU1111111111111111111111111111111 -
b11111 .
#1900000000
0!
0(
#1910000000
1!
bUUUUUUUUUUUUUUUUUUUUUUUUUUUUUUUU11111111111111111111111111111111 &
b1100000 '
1(
bUUUUUUUUUUUUUUUUUUUUUUUUUUUUUUUU11111111111111111111111111111111 +
bUUUUUUUUUUUUUUUUUUUUUUUUUUUUUUUU11111111111111111111111111111111 -
b100000 .
#1920000000
0!
0(
#1930000000
1!
bUUUUUUUUUUUUUUUUUUUUUUUUUUUUUUU111111111111111111111111111111111 &
b1100001 '
1(
bUUUUUUUUUUUUUUUUUUUUUUUUUUUUUUU111111111111111111111111111111111 +
bUUUUUUUUUUUUUUUUUUUUUUUUUUUUUUU111111111111111111111111111111111 -
b100001 .
#1940000000
0!
0(
#1950000000
1!
bUUUUUUUUUUUUUUUUUUUUUUUUUUUUUU1111111111111111111111111111111111 &
b1100010 '
1(
bUUUUUUUUUUUUUUUUUUUUUUUUUUUUUU1111111111111111111111111111111111 +
bUUUUUUUUUUUUUUUUUUUUUUUUUUUUUU1111111111111111111111111111111111 -
b100010 .
#1960000000
0!
0(
#1970000000
1!
bUUUUUUUUUUUUUUUUUUUUUUUUUUUUU11111111111111111111111111111111111 &
b1100011 '
1(
bUUUUUUUUUUUUUUUUUUUUUUUUUUUUU11111111111111111111111111111111111 +
bUUUUUUUUUUUUUUUUUUUUUUUUUUUUU11111111111111111111111111111111111 -
b100011 .
#1980000000
0!
0(
#1990000000
1!
bUUUUUUUUUUUUUUUUUUUUUUUUUUUU111111111111111111111111111111111111 &
b1100100 '
1(
bUUUUUUUUUUUUUUUUUUUUUUUUUUUU111111111111111111111111111111111111 +
bUUUUUUUUUUUUUUUUUUUUUUUUUUUU111111111111111111111111111111111111 -
b100100 .
#2000000000
0!
0(
#2010000000
1!
bUUUUUUUUUUUUUUUUUUUUUUUUUUU1111111111111111111111111111111111111 &
b1100101 '
1(
bUUUUUUUUUUUUUUUUUUUUUUUUUUU1111111111111111111111111111111111111 +
bUUUUUUUUUUUUUUUUUUUUUUUUUUU1111111111111111111111111111111111111 -
b100101 .
#2020000000
0!
0(
#2030000000
1!
bUUUUUUUUUUUUUUUUUUUUUUUUUU11111111111111111111111111111111111111 &
b1100110 '
1(
bUUUUUUUUUUUUUUUUUUUUUUUUUU11111111111111111111111111111111111111 +
bUUUUUUUUUUUUUUUUUUUUUUUUUU11111111111111111111111111111111111111 -
b100110 .
#2040000000
0!
0(
#2050000000
1!
bUUUUUUUUUUUUUUUUUUUUUUUUU111111111111111111111111111111111111111 &
b1100111 '
1(
bUUUUUUUUUUUUUUUUUUUUUUUUU111111111111111111111111111111111111111 +
bUUUUUUUUUUUUUUUUUUUUUUUUU111111111111111111111111111111111111111 -
b100111 .
#2060000000
0!
0(
#2070000000
1!
bUUUUUUUUUUUUUUUUUUUUUUUU1111111111111111111111111111111111111111 &
b1101000 '
1(
bUUUUUUUUUUUUUUUUUUUUUUUU1111111111111111111111111111111111111111 +
bUUUUUUUUUUUUUUUUUUUUUUUU1111111111111111111111111111111111111111 -
b101000 .
#2080000000
0!
0(
#2090000000
1!
bUUUUUUUUUUUUUUUUUUUUUUU11111111111111111111111111111111111111111 &
b1101001 '
1(
bUUUUUUUUUUUUUUUUUUUUUUU11111111111111111111111111111111111111111 +
bUUUUUUUUUUUUUUUUUUUUUUU11111111111111111111111111111111111111111 -
b101001 .
#2100000000
0!
0(
#2110000000
1!
bUUUUUUUUUUUUUUUUUUUUUU111111111111111111111111111111111111111111 &
b1101010 '
1(
bUUUUUUUUUUUUUUUUUUUUUU111111111111111111111111111111111111111111 +
bUUUUUUUUUUUUUUUUUUUUUU111111111111111111111111111111111111111111 -
b101010 .
#2120000000
0!
0(
#2130000000
1!
bUUUUUUUUUUUUUUUUUUUUU1111111111111111111111111111111111111111111 &
b1101011 '
1(
bUUUUUUUUUUUUUUUUUUUUU1111111111111111111111111111111111111111111 +
bUUUUUUUUUUUUUUUUUUUUU1111111111111111111111111111111111111111111 -
b101011 .
#2140000000
0!
0(
#2150000000
1!
bUUUUUUUUUUUUUUUUUUUU11111111111111111111111111111111111111111111 &
b1101100 '
1(
bUUUUUUUUUUUUUUUUUUUU11111111111111111111111111111111111111111111 +
bUUUUUUUUUUUUUUUUUUUU11111111111111111111111111111111111111111111 -
b101100 .
#2160000000
0!
0(
#2170000000
1!
bUUUUUUUUUUUUUUUUUUU111111111111111111111111111111111111111111111 &
b1101101 '
1(
bUUUUUUUUUUUUUUUUUUU111111111111111111111111111111111111111111111 +
bUUUUUUUUUUUUUUUUUUU111111111111111111111111111111111111111111111 -
b101101 .
#2180000000
0!
0(
#2190000000
1!
bUUUUUUUUUUUUUUUUUU1111111111111111111111111111111111111111111111 &
b1101110 '
1(
bUUUUUUUUUUUUUUUUUU1111111111111111111111111111111111111111111111 +
bUUUUUUUUUUUUUUUUUU1111111111111111111111111111111111111111111111 -
b101110 .
#2200000000
0!
0(
#2210000000
1!
bUUUUUUUUUUUUUUUUU11111111111111111111111111111111111111111111111 &
b1101111 '
1(
bUUUUUUUUUUUUUUUUU11111111111111111111111111111111111111111111111 +
bUUUUUUUUUUUUUUUUU11111111111111111111111111111111111111111111111 -
b101111 .
#2220000000
0!
0(
#2230000000
1!
bUUUUUUUUUUUUUUUU111111111111111111111111111111111111111111111111 &
b1110000 '
1(
bUUUUUUUUUUUUUUUU111111111111111111111111111111111111111111111111 +
bUUUUUUUUUUUUUUUU111111111111111111111111111111111111111111111111 -
b110000 .
#2240000000
0!
0(
#2250000000
1!
bUUUUUUUUUUUUUUU1111111111111111111111111111111111111111111111111 &
b1110001 '
1(
bUUUUUUUUUUUUUUU1111111111111111111111111111111111111111111111111 +
bUUUUUUUUUUUUUUU1111111111111111111111111111111111111111111111111 -
b110001 .
#2260000000
0!
0(
#2270000000
1!
bUUUUUUUUUUUUUU11111111111111111111111111111111111111111111111111 &
b1110010 '
1(
bUUUUUUUUUUUUUU11111111111111111111111111111111111111111111111111 +
bUUUUUUUUUUUUUU11111111111111111111111111111111111111111111111111 -
b110010 .
#2280000000
0!
0(
#2290000000
1!
bUUUUUUUUUUUUU111111111111111111111111111111111111111111111111111 &
b1110011 '
1(
bUUUUUUUUUUUUU111111111111111111111111111111111111111111111111111 +
bUUUUUUUUUUUUU111111111111111111111111111111111111111111111111111 -
b110011 .
#2300000000
0!
0(
#2310000000
1!
bUUUUUUUUUUUU1111111111111111111111111111111111111111111111111111 &
b1110100 '
1(
bUUUUUUUUUUUU1111111111111111111111111111111111111111111111111111 +
bUUUUUUUUUUUU1111111111111111111111111111111111111111111111111111 -
b110100 .
#2320000000
0!
0(
#2330000000
1!
bUUUUUUUUUUU11111111111111111111111111111111111111111111111111111 &
b1110101 '
1(
bUUUUUUUUUUU11111111111111111111111111111111111111111111111111111 +
bUUUUUUUUUUU11111111111111111111111111111111111111111111111111111 -
b110101 .
#2340000000
0!
0(
#2350000000
1!
bUUUUUUUUUU111111111111111111111111111111111111111111111111111111 &
b1110110 '
1(
bUUUUUUUUUU111111111111111111111111111111111111111111111111111111 +
bUUUUUUUUUU111111111111111111111111111111111111111111111111111111 -
b110110 .
#2360000000
0!
0(
#2370000000
1!
bUUUUUUUUU1111111111111111111111111111111111111111111111111111111 &
b1110111 '
1(
bUUUUUUUUU1111111111111111111111111111111111111111111111111111111 +
bUUUUUUUUU1111111111111111111111111111111111111111111111111111111 -
b110111 .
#2380000000
0!
0(
#2390000000
1!
bUUUUUUUU11111111111111111111111111111111111111111111111111111111 &
b1111000 '
1(
bUUUUUUUU11111111111111111111111111111111111111111111111111111111 +
bUUUUUUUU11111111111111111111111111111111111111111111111111111111 -
b111000 .
#2400000000
0!
0(
#2410000000
1!
bUUUUUUU111111111111111111111111111111111111111111111111111111111 &
b1111001 '
1(
bUUUUUUU111111111111111111111111111111111111111111111111111111111 +
bUUUUUUU111111111111111111111111111111111111111111111111111111111 -
b111001 .
#2420000000
0!
0(
#2430000000
1!
bUUUUUU1111111111111111111111111111111111111111111111111111111111 &
b1111010 '
1(
bUUUUUU1111111111111111111111111111111111111111111111111111111111 +
bUUUUUU1111111111111111111111111111111111111111111111111111111111 -
b111010 .
#2440000000
0!
0(
#2450000000
1!
bUUUUU11111111111111111111111111111111111111111111111111111111111 &
b1111011 '
1(
bUUUUU11111111111111111111111111111111111111111111111111111111111 +
bUUUUU11111111111111111111111111111111111111111111111111111111111 -
b111011 .
#2460000000
0!
0(
#2470000000
1!
bUUUU111111111111111111111111111111111111111111111111111111111111 &
b1111100 '
1(
bUUUU111111111111111111111111111111111111111111111111111111111111 +
bUUUU111111111111111111111111111111111111111111111111111111111111 -
b111100 .
#2480000000
0!
0(
#2490000000
1!
bUUU1111111111111111111111111111111111111111111111111111111111111 &
b1111101 '
1(
bUUU1111111111111111111111111111111111111111111111111111111111111 +
bUUU1111111111111111111111111111111111111111111111111111111111111 -
b111101 .
#2500000000
0!
0(
#2510000000
1!
bUU11111111111111111111111111111111111111111111111111111111111111 &
b1111110 '
1(
bUU11111111111111111111111111111111111111111111111111111111111111 +
bUU11111111111111111111111111111111111111111111111111111111111111 -
b111110 .
#2520000000
0!
0(
#2530000000
1!
bU111111111111111111111111111111111111111111111111111111111111111 &
b1111111 '
1(
bU111111111111111111111111111111111111111111111111111111111111111 +
bU111111111111111111111111111111111111111111111111111111111111111 -
b111111 .
#2540000000
0!
0(
#2550000000
1!
b1111111111111111111111111111111111111111111111111111111111111111 &
b10000000 '
1(
b1111111111111111111111111111111111111111111111111111111111111111 +
b1111111111111111111111111111111111111111111111111111111111111111 -
b0 .
#2560000000
0!
0(
#2570000000
1!
0$
b10000001 '
1(
0*
b1 .
#2580000000
0!
0(
#2590000000
1!
b10000010 '
1(
b10 .
#2600000000
0!
0(
#2610000000
1!
b10000011 '
1(
b11 .
#2620000000
0!
0(
#2630000000
1!
b10000100 '
1(
b100 .
#2640000000
0!
0(
#2650000000
1!
b10000101 '
1(
b101 .
#2660000000
0!
0(
#2670000000
1!
b10000110 '
1(
b110 .
#2680000000
0!
0(
#2690000000
1!
b10000111 '
1(
b111 .
#2700000000
0!
0(
#2710000000
1!
b10001000 '
1(
b1000 .
#2720000000
0!
0(
#2730000000
1!
b10001001 '
1(
b1001 .
#2740000000
0!
0(
#2750000000
1!
b10001010 '
1(
b1010 .
#2760000000
0!
0(
#2770000000
1!
b10001011 '
1(
b1011 .
#2780000000
0!
0(
#2790000000
1!
b10001100 '
1(
b1100 .
#2800000000
0!
0(
#2810000000
1!
b10001101 '
1(
b1101 .
#2820000000
0!
0(
#2830000000
1!
b10001110 '
1(
b1110 .
#2840000000
0!
0(
#2850000000
1!
b10001111 '
1(
b1111 .
#2860000000
0!
0(
#2870000000
1!
b10010000 '
1(
b10000 .
#2880000000
0!
0(
#2890000000
1!
b10010001 '
1(
b10001 .
#2900000000
0!
0(
#2910000000
1!
b10010010 '
1(
b10010 .
#2920000000
0!
0(
#2930000000
1!
b10010011 '
1(
b10011 .
#2940000000
0!
0(
#2950000000
1!
b10010100 '
1(
b10100 .
#2960000000
0!
0(
#2970000000
1!
b10010101 '
1(
b10101 .
#2980000000
0!
0(
#2990000000
1!
b10010110 '
1(
b10110 .
#3000000000
0!
0(
#3010000000
1!
b10010111 '
1(
b10111 .
#3020000000
0!
0(
