TME6/Reg.vcd
$date
  Tue Dec  3 17:57:32 2019
$end
$version
  GHDL v0
$end
$timescale
  1 fs
$end
$var reg 32 ! wdata1[31:0] $end
$var reg 4 " wadr1[3:0] $end
$var reg 1 # wen1 $end
$var reg 32 $ wdata2[31:0] $end
$var reg 4 % wadr2[3:0] $end
$var reg 1 & wen2 $end
$var reg 1 ' wcry $end
$var reg 1 ( wzero $end
$var reg 1 ) wneg $end
$var reg 1 * wovr $end
$var reg 1 + cspr_wb $end
$var reg 32 , reg_rd1[31:0] $end
$var reg 4 - radr1[3:0] $end
$var reg 1 . reg_v1 $end
$var reg 32 / reg_rd2[31:0] $end
$var reg 4 0 radr2[3:0] $end
$var reg 1 1 reg_v2 $end
$var reg 32 2 reg_rd3[31:0] $end
$var reg 4 3 radr3[3:0] $end
$var reg 1 4 reg_v3 $end
$var reg 1 5 reg_cry $end
$var reg 1 6 reg_zero $end
$var reg 1 7 reg_neg $end
$var reg 1 8 reg_cznv $end
$var reg 1 9 reg_ovr $end
$var reg 1 : reg_vv $end
$var reg 4 ; inval_adr1[3:0] $end
$var reg 1 < inval1 $end
$var reg 4 = inval_adr2[3:0] $end
$var reg 1 > inval2 $end
$var reg 1 ? inval_czn $end
$var reg 1 @ inval_ovr $end
$var reg 32 A reg_pc[31:0] $end
$var reg 1 B reg_pcv $end
$var reg 1 C inc_pc $end
$var reg 1 D ck $end
$var reg 1 E ckonoff $end
$var reg 1 F reset_n $end
$var reg 1 G vdd $end
$var reg 1 H vss $end
$var reg 32 I sortie[31:0] $end
$var reg 16 J invalbit[15:0] $end
$scope module l0 $end
$var reg 32 K wdata1[31:0] $end
$var reg 4 L wadr1[3:0] $end
$var reg 1 M wen1 $end
$var reg 32 N wdata2[31:0] $end
$var reg 4 O wadr2[3:0] $end
$var reg 1 P wen2 $end
$var reg 1 Q wcry $end
$var reg 1 R wzero $end
$var reg 1 S wneg $end
$var reg 1 T wovr $end
$var reg 1 U cspr_wb $end
$var reg 32 V reg_rd1[31:0] $end
$var reg 4 W radr1[3:0] $end
$var reg 1 X reg_v1 $end
$var reg 32 Y reg_rd2[31:0] $end
$var reg 4 Z radr2[3:0] $end
$var reg 1 [ reg_v2 $end
$var reg 32 \ reg_rd3[31:0] $end
$var reg 4 ] radr3[3:0] $end
$var reg 1 ^ reg_v3 $end
$var reg 1 _ reg_cry $end
$var reg 1 ` reg_zero $end
$var reg 1 a reg_neg $end
$var reg 1 b reg_cznv $end
$var reg 1 c reg_ovr $end
$var reg 1 d reg_vv $end
$var reg 4 e inval_adr1[3:0] $end
$var reg 1 f inval1 $end
$var reg 4 g inval_adr2[3:0] $end
$var reg 1 h inval2 $end
$var reg 1 i inval_czn $end
$var reg 1 j inval_ovr $end
$var reg 32 k reg_pc[31:0] $end
$var reg 1 l reg_pcv $end
$var reg 1 m inc_pc $end
$var reg 1 n ck $end
$var reg 1 o reset_n $end
$var reg 1 p vdd $end
$var reg 1 q vss $end
$var reg 32 r sortie[31:0] $end
$var reg 16 s invalbit[15:0] $end
$var reg 32 t r0[31:0] $end
$var reg 32 u r1[31:0] $end
$var reg 32 v r2[31:0] $end
$var reg 32 w r3[31:0] $end
$var reg 32 x r4[31:0] $end
$var reg 32 y r5[31:0] $end
$var reg 32 z r6[31:0] $end
$var reg 32 { r7[31:0] $end
$var reg 32 | r8[31:0] $end
$var reg 32 } r9[31:0] $end
$var reg 32 !" r10[31:0] $end
$var reg 32 "" r11[31:0] $end
$var reg 32 #" r12[31:0] $end
$var reg 32 $" r13[31:0] $end
$var reg 32 %" r14[31:0] $end
$var reg 32 &" r15[31:0] $end
$var reg 16 '" invalbits[15:0] $end
$var reg 1 (" wcry_s $end
$var reg 1 )" wzero_s $end
$var reg 1 *" wneg_s $end
$var reg 1 +" wovr_s $end
$upscope $end
$enddefinitions $end
#0
bUUUUUUUUUUUUUUUUUUUUUUUUUUUUUUUU !
bUUUU "
U#
bUUUUUUUUUUUUUUUUUUUUUUUUUUUUUUUU $
bUUUU %
U&
U'
U(
U)
U*
U+
b00000000000000000000000000000000 ,
bUUUU -
0.
bUUUUUUUUUUUUUUUUUUUUUUUUUUUUUUUU /
bUUUU 0
U1
bUUUUUUUUUUUUUUUUUUUUUUUUUUUUUUUU 2
bUUUU 3
U4
U5
U6
U7
U8
U9
U:
b0000 ;
0<
bUUUU =
U>
U?
U@
b00000000000000000000000000000000 A
UB
0C
0D
1E
UF
0G
0H
b00000000000000000000000000000000 I
b0000000000000000 J
bUUUUUUUUUUUUUUUUUUUUUUUUUUUUUUUU K
bUUUU L
UM
bUUUUUUUUUUUUUUUUUUUUUUUUUUUUUUUU N
bUUUU O
UP
UQ
UR
US
UT
UU
b00000000000000000000000000000000 V
bUUUU W
0X
bUUUUUUUUUUUUUUUUUUUUUUUUUUUUUUUU Y
bUUUU Z
U[
bUUUUUUUUUUUUUUUUUUUUUUUUUUUUUUUU \
bUUUU ]
U^
U_
U`
Ua
Ub
Uc
Ud
b0000 e
0f
bUUUU g
Uh
Ui
Uj
b00000000000000000000000000000000 k
Ul
0m
0n
Uo
0p
0q
b00000000000000000000000000000000 r
b0000000000000000 s
b00000000000000000000000000000000 t
b00000000000000000000000000000000 u
b00000000000000000000000000000000 v
b00000000000000000000000000000000 w
b00000000000000000000000000000000 x
b00000000000000000000000000000000 y
b00000000000000000000000000000000 z
b00000000000000000000000000000000 {
b00000000000000000000000000000000 |
b00000000000000000000000000000000 }
b00000000000000000000000000000000 !"
b00000000000000000000000000000000 ""
b00000000000000000000000000000000 #"
b00000000000000000000000000000000 $"
b00000000000000000000000000000000 %"
b00000000000000000000000000000000 &"
b0000000000000000 '"
U("
U)"
U*"
U+"
#10000000
1D
1n
#20000000
0D
0n
#30000000
1D
1n
#40000000
0D
0n
#50000000
1D
1n
#60000000
0D
0n
#70000000
1D
1n
#80000000
0D
0n
#90000000
1D
1n
#100000000
b00000000000000000000110111101110 !
b0010 "
b0010 ;
0D
b00000000000000000000110111101110 K
b0010 L
b0010 e
0n
#110000000
1D
1n
#120000000
1#
0D
1M
0n
#130000000
1D
1n
#140000000
0D
0n
#150000000
1<
1D
1f
1n
#160000000
0D
b0000000000000100 J
0n
b0000000000000100 s
b0000000000000100 '"
#170000000
1D
b00000000000000000000110111101110 I
b0000000000000000 J
1n
b00000000000000000000110111101110 r
b0000000000000000 s
b00000000000000000000110111101110 v
b0000000000000000 '"
#180000000
0D
b0000000000000100 J
0n
b0000000000000100 s
b0000000000000100 '"
#190000000
1D
b0000000000000000 J
1n
b0000000000000000 s
b0000000000000000 '"
#200000000
b00000000000000000000110111101110 ,
b0010 -
1.
b00000000000000000000000000000100 A
1C
0D
b0000000000000100 J
b00000000000000000000110111101110 V
b0010 W
1X
b00000000000000000000000000000100 k
1m
0n
b0000000000000100 s
b00000000000000000000000000000100 &"
b0000000000000100 '"
#210000000
0C
1D
b0000000000000000 J
0m
1n
b0000000000000000 s
b0000000000000000 '"
#220000000
0D
b0000000000000100 J
0n
b0000000000000100 s
b0000000000000100 '"
#230000000
1D
b0000000000000000 J
1n
b0000000000000000 s
b0000000000000000 '"
#240000000
0D
b0000000000000100 J
0n
b0000000000000100 s
b0000000000000100 '"
#250000000
1D
b0000000000000000 J
1n
b0000000000000000 s
b0000000000000000 '"
#260000000
0D
b0000000000000100 J
0n
b0000000000000100 s
b0000000000000100 '"
#270000000
1D
b0000000000000000 J
1n
b0000000000000000 s
b0000000000000000 '"
#280000000
0D
b0000000000000100 J
0n
b0000000000000100 s
b0000000000000100 '"
#290000000
1D
b0000000000000000 J
1n
b0000000000000000 s
b0000000000000000 '"
#300000000
0D
b0000000000000100 J
0n
b0000000000000100 s
b0000000000000100 '"
#310000000
1D
b0000000000000000 J
1n
b0000000000000000 s
b0000000000000000 '"
#320000000
0D
b0000000000000100 J
0n
b0000000000000100 s
b0000000000000100 '"
#330000000
1D
b0000000000000000 J
1n
b0000000000000000 s
b0000000000000000 '"
#340000000
0D
b0000000000000100 J
0n
b0000000000000100 s
b0000000000000100 '"
#350000000
1D
b0000000000000000 J
1n
b0000000000000000 s
b0000000000000000 '"
#360000000
0D
b0000000000000100 J
0n
b0000000000000100 s
b0000000000000100 '"
#370000000
1D
b0000000000000000 J
1n
b0000000000000000 s
b0000000000000000 '"
#380000000
0D
b0000000000000100 J
0n
b0000000000000100 s
b0000000000000100 '"
#390000000
1D
b0000000000000000 J
1n
b0000000000000000 s
b0000000000000000 '"
#400000000
0D
b0000000000000100 J
0n
b0000000000000100 s
b0000000000000100 '"
#410000000
1D
b0000000000000000 J
1n
b0000000000000000 s
b0000000000000000 '"
#420000000
0D
b0000000000000100 J
0n
b0000000000000100 s
b0000000000000100 '"
#430000000
1D
b0000000000000000 J
1n
b0000000000000000 s
b0000000000000000 '"
#440000000
0D
b0000000000000100 J
0n
b0000000000000100 s
b0000000000000100 '"
#450000000
b0011 "
1D
b0011 L
1n
#460000000
0D
b0000000000001100 J
0n
b0000000000001100 s
b0000000000001100 '"
#470000000
1D
1n
#480000000
0D
0n
#490000000
b00000000000011111111111111111111 !
1D
b00000000000011111111111111111111 K
1n
#500000000
b00000000000000000000000000000000 ,
b0011 -
0.
0D
b00000000000000000000000000000000 V
b0011 W
0X
0n
#510000000
1D
1n
#520000000
b0011 ;
0D
b0011 e
0n
